…
``` r
library(completejourney)
get_data(which = "all", verbose = FALSE)
```

Each downloaded data set is attached to the user search path and can be
called directly (i.e. `transactions`). For specifc details on a given
data set see the data sets respective help file (i.e. `?transactions`).

``` r
transactions
#> # A tibble: 1,469,307 x 11
#>    household_id store_id basket_id product_id quantity sales_value
#>    <chr>        <chr>    <chr>     <chr>         <dbl>       <dbl>
#>  1 900          330      31198570… 1095275           1        0.5 
#>  2 900          330      31198570… 9878513           1        0.99
#>  3 1228         406      31198655… 1041453           1        1.43
#>  4 906          319      31198705… 1020156           1        1.5 
#>  5 906          319      31198705… 1053875           2        2.78
#>  6 906          319      31198705… 1060312           1        5.49
#>  7 906          319      31198705… 1075313           1        1.5 
#>  8 1058         381      31198676… 985893            1        1.88
#>  9 1058         381      31198676… 988791            1        1.5 
#> 10 1058         381      31198676… 9297106           1        2.69
#> # … with 1,469,297 more rows, and 5 more variables: retail_disc <dbl>,
#> #   coupon_disc <dbl>, coupon_match_disc <dbl>, week <int>,
#> #   transaction_timestamp <dttm>
```
…
