…
Due to the size of the transactions and promotions data, the package provides a
sampling of the data built-in with `transactions_sample` and `promotions_sample`. 
However, you can access the full promotions and transactions data sets from the 
source GitHub repository with the following: 

```{r load-transactions}
# get the full transactions data set
transactions <- get_transactions()
transactions
## # A tibble: 1,469,307 x 11
##    household_id store_id basket_id product_id quantity sales_value retail_disc
##    <chr>        <chr>    <chr>     <chr>         <dbl>       <dbl>       <dbl>
##  1 900          330      31198570… 1095275           1        0.5        0    
##  2 900          330      31198570… 9878513           1        0.99       0.1  
##  3 1228         406      31198655… 1041453           1        1.43       0.15 
##  4 906          319      31198705… 1020156           1        1.5        0.290
##  5 906          319      31198705… 1053875           2        2.78       0.8  
##  6 906          319      31198705… 1060312           1        5.49       0.5  
##  7 906          319      31198705… 1075313           1        1.5        0.290
##  8 1058         381      31198676… 985893            1        1.88       0.21 
##  9 1058         381      31198676… 988791            1        1.5        1.29 
## 10 1058         381      31198676… 9297106           1        2.69       0    
## # … with 1,469,297 more rows, and 4 more variables: coupon_disc <dbl>,
## #   coupon_match_disc <dbl>, week <int>, transaction_timestamp <dttm>
```

```{r load-promotions}
# get the full promotions data set
promotions <- get_promotions()
promotions
## # A tibble: 20,940,529 x 5
##    product_id store_id display_location mailer_location  week
##    <chr>      <chr>    <fct>            <fct>           <int>
##  1 1000050    316      9                0                   1
##  2 1000050    337      3                0                   1
##  3 1000050    441      5                0                   1
##  4 1000092    292      0                A                   1
##  5 1000092    293      0                A                   1
##  6 1000092    295      0                A                   1
##  7 1000092    298      0                A                   1
##  8 1000092    299      0                A                   1
##  9 1000092    304      0                A                   1
## 10 1000092    306      0                A                   1
## # … with 20,940,519 more rows
```
…
Let us take a closer look at campaign 18 When we look at all the distinct 
coupon_upc’s from the coupon table where `campaign_id = "18"`, we see that there were 
209 distinct coupons sent out as part of that campaign.

```{r}
coupons %>% 
  filter(campaign_id == "18") %>%
  distinct(coupon_upc)
## # A tibble: 209 x 1
##    coupon_upc 
##    <chr>      
##  1 10000085475
##  2 10000085476
##  3 10000085477
##  4 10000085478
##  5 10000085479
##  6 10000085480
##  7 10000085484
##  8 10000089237
##  9 10000089238
## 10 10000089239
## # … with 199 more rows
```

Let us take an even deeper look at one of the specific coupons offered as part of 
the campaign. If we print out all records from the coupon table where `campaign_id = "18"`
and `coupon_upc = "55410000076"`, we see that this coupon could actually be redeemed 
for a number of products.

```{r}
coupons %>% 
  filter(campaign_id == "18", 
         coupon_upc == "55410000076")
## # A tibble: 50 x 3
##    coupon_upc  product_id campaign_id
##    <chr>       <chr>      <chr>      
##  1 55410000076 1004458    18         
##  2 55410000076 1011841    18         
##  3 55410000076 1016495    18         
##  4 55410000076 10182852   18         
##  5 55410000076 1018696    18         
##  6 55410000076 1058591    18         
##  7 55410000076 1065032    18         
##  8 55410000076 1069973    18         
##  9 55410000076 107157     18         
## 10 55410000076 1110721    18         
## # … with 40 more rows
```

Although all the products are not displayed above, we find that this coupon is actually 
valid on 50 distinct products. If we go to the product table and print out all records 
for the `product_id`’s above ("1004458", "1011841", etc.), we see that this coupon is valid 
for pickles from a national brand.

```{r}
coupons %>% 
  filter(campaign_id == "18", 
         coupon_upc == "55410000076") %>% 
  left_join(., products, by="product_id") %>%
  select(product_id, manufacturer_id, department, brand, 
         product_category, product_type, package_size)
## # A tibble: 50 x 7
##    product_id manufacturer_id department brand product_category product_type
##    <chr>      <chr>           <chr>      <fct> <chr>            <chr>       
##  1 1004458    1318            GROCERY    Nati… PICKLE/RELISH/P… PICKLES     
##  2 1011841    1318            GROCERY    Nati… PICKLE/RELISH/P… PICKLES     
##  3 1016495    1318            GROCERY    Nati… PICKLE/RELISH/P… PICKLD VEG …
##  4 10182852   1318            GROCERY    Nati… PICKLE/RELISH/P… PICKLES     
##  5 1018696    1318            GROCERY    Nati… PICKLE/RELISH/P… PICKLES     
##  6 1058591    1318            GROCERY    Nati… PICKLE/RELISH/P… PICKLES     
##  7 1065032    1318            GROCERY    Nati… PICKLE/RELISH/P… PICKLES     
##  8 1069973    1318            GROCERY    Nati… PICKLE/RELISH/P… PICKLES     
##  9 107157     1318            GROCERY    Nati… PICKLE/RELISH/P… PICKLES     
## 10 1110721    1318            GROCERY    Nati… PICKLE/RELISH/P… PICKLES     
## # … with 40 more rows, and 1 more variable: package_size <chr>
```
…
John’s coupon redemptions are only part of the overall picture of his purchasing 
behavior. If we look at the records from the transaction_data table where 
`household_id = "208"`, we can view everything that John purchased.

```{r}
transactions %>%
  filter(household_id == "208")
## # A tibble: 756 x 11
##    household_id store_id basket_id product_id quantity sales_value retail_disc
##    <chr>        <chr>    <chr>     <chr>         <dbl>       <dbl>       <dbl>
##  1 208          327      31268866… 845379            1        7.64        0   
##  2 208          327      31268866… 854133            1        4.69        0.5 
##  3 208          327      31268866… 862349            1        1           0.99
##  4 208          327      31268866… 879504            1        2           1.19
##  5 208          327      31268866… 990519            1        1.69        0   
##  6 208          327      31268866… 1068830           1        1.09        0   
##  7 208          327      31268866… 1097635           1        2.96        0   
##  8 208          324      31344175… 883932            1        2           0.59
##  9 208          324      31344175… 885290            1        1.99        0   
## 10 208          324      31344175… 915502            2        4           2.78
## # … with 746 more rows, and 4 more variables: coupon_disc <dbl>,
## #   coupon_match_disc <dbl>, week <int>, transaction_timestamp <dttm>
```
…
