The Complete Journey User Guide • completejourney
…
These campaigns were spread out over the 2 year period of the study. To understand the time periods of these campaigns, look at the records in the campaigns table for the campaigns listed above for John.

johns_campaigns <- campaigns %>% 
  filter(household_id == 208) %>% 
  distinct(description) %>%
  pull()

campaign_descriptions %>% filter(description %in% johns_campaigns)
#> # A tibble: 24 x 4
#>    campaign description start_day end_day
#>       <int> <chr>           <int>   <int>
#>  1       24 TypeB             659     719
#>  2       25 TypeB             659     691
#>  3       23 TypeB             646     684
#>  4       21 TypeB             624     656
#>  5       22 TypeB             624     656
#>  6       18 TypeA             587     642
#>  7       19 TypeB             603     635
#>  8       17 TypeB             575     607
#>  9       16 TypeB             561     593
#> 10       13 TypeA             504     551
#> # ... with 14 more rows

Let us take a closer look at campaign 22. When we look at all the distinct coupon_upc’s from the coupon table where campaign = 22, we see that there were 21 distinct coupons sent out as part of that campaign.

coupons %>% 
  filter(campaign == 22) %>%
  distinct(coupon_upc)
#> # A tibble: 21 x 1
#>    coupon_upc     
#>    <S3: integer64>
#>  1 52100000031    
#>  2 54400021032    
#>  3 55100090033    
#>  4 10000085486    
#>  5 10000089316    
#>  6 10000085487    
#>  7 57797520075    
#>  8 51450050050    
#>  9 52800031032    
#> 10 54850010033    
#> # ... with 11 more rows
…
