Sampling of the full promotions data set. — promotions_sample • completejourney
…
X - Free on interior page

Z - Free on front page, back page or wrap

    See also

    Use get_promotions to download the entire promotions
  data containing all 20,940,529 rows.

    Examples

# sampled promotions data set
promotions_sample
#> # A tibble: 1,948,597 x 5
#>    product_id store_id display_location mailer_location  week
#>    <chr>      <chr>    <fct>            <fct>           <int>
#>  1 1000050    337      3                0                   1
#>  2 1000092    317      0                A                   1
#>  3 1000092    329      0                A                   1
#>  4 1000092    343      0                A                   1
#>  5 1000092    356      0                A                   1
#>  6 1000092    358      0                A                   1
#>  7 1000092    359      0                A                   1
#>  8 1000092    362      0                A                   1
#>  9 1000092    369      0                A                   1
#> 10 1000214    317      6                0                   1
#> # … with 1,948,587 more rows
…
